{
  "name": "doc-server",
  "version": "0.0.11",
  "dependencies": {
    "basic-auth": {
      "version": "1.0.3",
      "from": "basic-auth@>=1.0.3 <2.0.0",
      "resolved": "https://registry.npmjs.org/basic-auth/-/basic-auth-1.0.3.tgz"
    },
    "color-marked": {
      "version": "0.3.3",
      "from": "color-marked@>=0.3.3 <0.4.0",
      "resolved": "https://registry.npmjs.org/color-marked/-/color-marked-0.3.3.tgz",
      "dependencies": {
        "highlight.js": {
          "version": "7.3.0",
          "from": "highlight.js@>=7.3.0 <7.4.0",
          "resolved": "https://registry.npmjs.org/highlight.js/-/highlight.js-7.3.0.tgz"
        },
        "css-parse": {
          "version": "1.2.0",
          "from": "css-parse@>=1.2.0 <1.3.0",
          "resolved": "https://registry.npmjs.org/css-parse/-/css-parse-1.2.0.tgz"
        },
        "cheerio": {
          "version": "0.10.8",
          "from": "cheerio@>=0.10.8 <0.11.0",
          "resolved": "https://registry.npmjs.org/cheerio/-/cheerio-0.10.8.tgz",
          "dependencies": {
            "cheerio-select": {
              "version": "0.0.3",
              "from": "cheerio-select@*",
              "resolved": "https://registry.npmjs.org/cheerio-select/-/cheerio-select-0.0.3.tgz",
              "dependencies": {
                "CSSselect": {
                  "version": "0.7.0",
                  "from": "CSSselect@>=0.0.0 <1.0.0",
                  "resolved": "https://registry.npmjs.org/CSSselect/-/CSSselect-0.7.0.tgz",
                  "dependencies": {
                    "CSSwhat": {
                      "version": "0.4.7",
                      "from": "CSSwhat@>=0.4.0 <0.5.0",
                      "resolved": "https://registry.npmjs.org/CSSwhat/-/CSSwhat-0.4.7.tgz"
                    },
                    "domutils": {
                      "version": "1.4.3",
                      "from": "domutils@>=1.4.0 <1.5.0",
                      "resolved": "https://registry.npmjs.org/domutils/-/domutils-1.4.3.tgz",
                      "dependencies": {
                        "domelementtype": {
                          "version": "1.3.0",
                          "from": "domelementtype@>=1.0.0 <2.0.0",
                          "resolved": "https://registry.npmjs.org/domelementtype/-/domelementtype-1.3.0.tgz"
                        }
                      }
                    },
                    "boolbase": {
                      "version": "1.0.0",
                      "from": "boolbase@>=1.0.0 <1.1.0",
                      "resolved": "https://registry.npmjs.org/boolbase/-/boolbase-1.0.0.tgz"
                    },
                    "nth-check": {
                      "version": "1.0.1",
                      "from": "nth-check@>=1.0.0 <1.1.0",
                      "resolved": "https://registry.npmjs.org/nth-check/-/nth-check-1.0.1.tgz"
                    }
                  }
                }
              }
            },
            "htmlparser2": {
              "version": "2.6.0",
              "from": "htmlparser2@>=2.0.0 <3.0.0",
              "resolved": "https://registry.npmjs.org/htmlparser2/-/htmlparser2-2.6.0.tgz",
              "dependencies": {
                "domhandler": {
                  "version": "2.0.3",
                  "from": "domhandler@>=2.0.0 <2.1.0",
                  "resolved": "https://registry.npmjs.org/domhandler/-/domhandler-2.0.3.tgz"
                },
                "domutils": {
                  "version": "1.0.1",
                  "from": "domutils@>=1.0.0 <1.1.0",
                  "resolved": "https://registry.npmjs.org/domutils/-/domutils-1.0.1.tgz"
                },
                "domelementtype": {
                  "version": "1.3.0",
                  "from": "domelementtype@>=1.0.0 <2.0.0",
                  "resolved": "https://registry.npmjs.org/domelementtype/-/domelementtype-1.3.0.tgz"
                }
              }
            },
            "underscore": {
              "version": "1.4.4",
              "from": "underscore@>=1.4.0 <1.5.0",
              "resolved": "https://registry.npmjs.org/underscore/-/underscore-1.4.4.tgz"
            },
            "entities": {
              "version": "0.5.0",
              "from": "entities@>=0.0.0 <1.0.0",
              "resolved": "https://registry.npmjs.org/entities/-/entities-0.5.0.tgz"
            }
          }
        }
      }
    },
    "compression": {
      "version": "1.5.2",
      "from": "compression@>=1.5.1 <2.0.0",
      "resolved": "https://registry.npmjs.org/compression/-/compression-1.5.2.tgz",
      "dependencies": {
        "accepts": {
          "version": "1.2.13",
          "from": "accepts@>=1.2.12 <1.3.0",
          "resolved": "https://registry.npmjs.org/accepts/-/accepts-1.2.13.tgz",
          "dependencies": {
            "mime-types": {
              "version": "2.1.6",
              "from": "mime-types@>=2.1.6 <2.2.0",
              "resolved": "https://registry.npmjs.org/mime-types/-/mime-types-2.1.6.tgz",
              "dependencies": {
                "mime-db": {
                  "version": "1.18.0",
                  "from": "mime-db@>=1.18.0 <1.19.0",
                  "resolved": "https://registry.npmjs.org/mime-db/-/mime-db-1.18.0.tgz"
                }
              }
            },
            "negotiator": {
              "version": "0.5.3",
              "from": "negotiator@0.5.3",
              "resolved": "https://registry.npmjs.org/negotiator/-/negotiator-0.5.3.tgz"
            }
          }
        },
        "bytes": {
          "version": "2.1.0",
          "from": "bytes@2.1.0",
          "resolved": "https://registry.npmjs.org/bytes/-/bytes-2.1.0.tgz"
        },
        "compressible": {
          "version": "2.0.5",
          "from": "compressible@>=2.0.5 <2.1.0",
          "resolved": "https://registry.npmjs.org/compressible/-/compressible-2.0.5.tgz",
          "dependencies": {
            "mime-db": {
              "version": "1.18.0",
              "from": "mime-db@>=1.16.0 <2.0.0",
              "resolved": "https://registry.npmjs.org/mime-db/-/mime-db-1.18.0.tgz"
            }
          }
        },
        "debug": {
          "version": "2.2.0",
          "from": "debug@>=2.2.0 <2.3.0",
          "resolved": "https://registry.npmjs.org/debug/-/debug-2.2.0.tgz",
          "dependencies": {
            "ms": {
              "version": "0.7.1",
              "from": "ms@0.7.1",
              "resolved": "https://registry.npmjs.org/ms/-/ms-0.7.1.tgz"
            }
          }
        },
        "on-headers": {
          "version": "1.0.0",
          "from": "on-headers@>=1.0.0 <1.1.0",
          "resolved": "https://registry.npmjs.org/on-headers/-/on-headers-1.0.0.tgz"
        },
        "vary": {
          "version": "1.0.1",
          "from": "vary@>=1.0.1 <1.1.0",
          "resolved": "https://registry.npmjs.org/vary/-/vary-1.0.1.tgz"
        }
      }
    },
    "connect-livereload": {
      "version": "0.5.3",
      "from": "connect-livereload@>=0.5.3 <0.6.0",
      "resolved": "https://registry.npmjs.org/connect-livereload/-/connect-livereload-0.5.3.tgz"
    },
    "dashdash": {
      "version": "1.10.1",
      "from": "dashdash@>=1.10.0 <2.0.0",
      "resolved": "https://registry.npmjs.org/dashdash/-/dashdash-1.10.1.tgz",
      "dependencies": {
        "assert-plus": {
          "version": "0.1.5",
          "from": "assert-plus@>=0.1.0 <0.2.0",
          "resolved": "https://registry.npmjs.org/assert-plus/-/assert-plus-0.1.5.tgz"
        }
      }
    },
    "express": {
      "version": "4.13.3",
      "from": "express@>=4.13.1 <5.0.0",
      "resolved": "https://registry.npmjs.org/express/-/express-4.13.3.tgz",
      "dependencies": {
        "accepts": {
          "version": "1.2.13",
          "from": "accepts@>=1.2.12 <1.3.0",
          "resolved": "https://registry.npmjs.org/accepts/-/accepts-1.2.13.tgz",
          "dependencies": {
            "mime-types": {
              "version": "2.1.6",
              "from": "mime-types@>=2.1.6 <2.2.0",
              "resolved": "https://registry.npmjs.org/mime-types/-/mime-types-2.1.6.tgz",
              "dependencies": {
                "mime-db": {
                  "version": "1.18.0",
                  "from": "mime-db@>=1.18.0 <1.19.0",
                  "resolved": "https://registry.npmjs.org/mime-db/-/mime-db-1.18.0.tgz"
                }
              }
            },
            "negotiator": {
              "version": "0.5.3",
              "from": "negotiator@0.5.3",
              "resolved": "https://registry.npmjs.org/negotiator/-/negotiator-0.5.3.tgz"
            }
          }
        },
        "array-flatten": {
          "version": "1.1.1",
          "from": "array-flatten@1.1.1",
          "resolved": "https://registry.npmjs.org/array-flatten/-/array-flatten-1.1.1.tgz"
        },
        "content-disposition": {
          "version": "0.5.0",
          "from": "content-disposition@0.5.0",
          "resolved": "https://registry.npmjs.org/content-disposition/-/content-disposition-0.5.0.tgz"
        },
        "content-type": {
          "version": "1.0.1",
          "from": "content-type@>=1.0.1 <1.1.0",
          "resolved": "https://registry.npmjs.org/content-type/-/content-type-1.0.1.tgz"
        },
        "cookie": {
          "version": "0.1.3",
          "from": "cookie@0.1.3",
          "resolved": "https://registry.npmjs.org/cookie/-/cookie-0.1.3.tgz"
        },
        "cookie-signature": {
          "version": "1.0.6",
          "from": "cookie-signature@1.0.6",
          "resolved": "https://registry.npmjs.org/cookie-signature/-/cookie-signature-1.0.6.tgz"
        },
        "debug": {
          "version": "2.2.0",
          "from": "debug@>=2.2.0 <2.3.0",
          "resolved": "https://registry.npmjs.org/debug/-/debug-2.2.0.tgz",
          "dependencies": {
            "ms": {
              "version": "0.7.1",
              "from": "ms@0.7.1",
              "resolved": "https://registry.npmjs.org/ms/-/ms-0.7.1.tgz"
            }
          }
        },
        "depd": {
          "version": "1.0.1",
          "from": "depd@>=1.0.1 <1.1.0",
          "resolved": "https://registry.npmjs.org/depd/-/depd-1.0.1.tgz"
        },
        "escape-html": {
          "version": "1.0.2",
          "from": "escape-html@1.0.2",
          "resolved": "https://registry.npmjs.org/escape-html/-/escape-html-1.0.2.tgz"
        },
        "etag": {
          "version": "1.7.0",
          "from": "etag@>=1.7.0 <1.8.0",
          "resolved": "https://registry.npmjs.org/etag/-/etag-1.7.0.tgz"
        },
        "finalhandler": {
          "version": "0.4.0",
          "from": "finalhandler@0.4.0",
          "resolved": "https://registry.npmjs.org/finalhandler/-/finalhandler-0.4.0.tgz",
          "dependencies": {
            "unpipe": {
              "version": "1.0.0",
              "from": "unpipe@>=1.0.0 <1.1.0",
              "resolved": "https://registry.npmjs.org/unpipe/-/unpipe-1.0.0.tgz"
            }
          }
        },
        "fresh": {
          "version": "0.3.0",
          "from": "fresh@0.3.0",
          "resolved": "https://registry.npmjs.org/fresh/-/fresh-0.3.0.tgz"
        },
        "merge-descriptors": {
          "version": "1.0.0",
          "from": "merge-descriptors@1.0.0",
          "resolved": "https://registry.npmjs.org/merge-descriptors/-/merge-descriptors-1.0.0.tgz"
        },
        "methods": {
          "version": "1.1.1",
          "from": "methods@>=1.0.0 <2.0.0",
          "resolved": "https://registry.npmjs.org/methods/-/methods-1.1.1.tgz"
        },
        "on-finished": {
          "version": "2.3.0",
          "from": "on-finished@>=2.3.0 <2.4.0",
          "resolved": "https://registry.npmjs.org/on-finished/-/on-finished-2.3.0.tgz",
          "dependencies": {
            "ee-first": {
              "version": "1.1.1",
              "from": "ee-first@1.1.1",
              "resolved": "https://registry.npmjs.org/ee-first/-/ee-first-1.1.1.tgz"
            }
          }
        },
        "parseurl": {
          "version": "1.3.0",
          "from": "parseurl@>=1.3.0 <1.4.0",
          "resolved": "https://registry.npmjs.org/parseurl/-/parseurl-1.3.0.tgz"
        },
        "path-to-regexp": {
          "version": "0.1.7",
          "from": "path-to-regexp@0.1.7",
          "resolved": "https://registry.npmjs.org/path-to-regexp/-/path-to-regexp-0.1.7.tgz"
        },
        "proxy-addr": {
          "version": "1.0.8",
          "from": "proxy-addr@>=1.0.8 <1.1.0",
          "resolved": "https://registry.npmjs.org/proxy-addr/-/proxy-addr-1.0.8.tgz",
          "dependencies": {
            "forwarded": {
              "version": "0.1.0",
              "from": "forwarded@>=0.1.0 <0.2.0",
              "resolved": "https://registry.npmjs.org/forwarded/-/forwarded-0.1.0.tgz"
            },
            "ipaddr.js": {
              "version": "1.0.1",
              "from": "ipaddr.js@1.0.1",
              "resolved": "https://registry.npmjs.org/ipaddr.js/-/ipaddr.js-1.0.1.tgz"
            }
          }
        },
        "qs": {
          "version": "4.0.0",
          "from": "qs@4.0.0",
          "resolved": "https://registry.npmjs.org/qs/-/qs-4.0.0.tgz"
        },
        "range-parser": {
          "version": "1.0.2",
          "from": "range-parser@>=1.0.2 <1.1.0",
          "resolved": "https://registry.npmjs.org/range-parser/-/range-parser-1.0.2.tgz"
        },
        "send": {
          "version": "0.13.0",
          "from": "send@0.13.0",
          "resolved": "https://registry.npmjs.org/send/-/send-0.13.0.tgz",
          "dependencies": {
            "destroy": {
              "version": "1.0.3",
              "from": "destroy@1.0.3",
              "resolved": "https://registry.npmjs.org/destroy/-/destroy-1.0.3.tgz"
            },
            "http-errors": {
              "version": "1.3.1",
              "from": "http-errors@>=1.3.1 <1.4.0",
              "resolved": "https://registry.npmjs.org/http-errors/-/http-errors-1.3.1.tgz",
              "dependencies": {
                "inherits": {
                  "version": "2.0.1",
                  "from": "inherits@>=2.0.1 <2.1.0",
                  "resolved": "https://registry.npmjs.org/inherits/-/inherits-2.0.1.tgz"
                }
              }
            },
            "mime": {
              "version": "1.3.4",
              "from": "mime@1.3.4",
              "resolved": "https://registry.npmjs.org/mime/-/mime-1.3.4.tgz"
            },
            "ms": {
              "version": "0.7.1",
              "from": "ms@0.7.1",
              "resolved": "https://registry.npmjs.org/ms/-/ms-0.7.1.tgz"
            },
            "statuses": {
              "version": "1.2.1",
              "from": "statuses@>=1.2.1 <1.3.0",
              "resolved": "https://registry.npmjs.org/statuses/-/statuses-1.2.1.tgz"
            }
          }
        },
        "serve-static": {
          "version": "1.10.0",
          "from": "serve-static@>=1.10.0 <1.11.0",
          "resolved": "https://registry.npmjs.org/serve-static/-/serve-static-1.10.0.tgz"
        },
        "type-is": {
          "version": "1.6.8",
          "from": "type-is@>=1.6.6 <1.7.0",
          "resolved": "https://registry.npmjs.org/type-is/-/type-is-1.6.8.tgz",
          "dependencies": {
            "media-typer": {
              "version": "0.3.0",
              "from": "media-typer@0.3.0",
              "resolved": "https://registry.npmjs.org/media-typer/-/media-typer-0.3.0.tgz"
            },
            "mime-types": {
              "version": "2.1.6",
              "from": "mime-types@>=2.1.6 <2.2.0",
              "resolved": "https://registry.npmjs.org/mime-types/-/mime-types-2.1.6.tgz",
              "dependencies": {
                "mime-db": {
                  "version": "1.18.0",
                  "from": "mime-db@>=1.18.0 <1.19.0",
                  "resolved": "https://registry.npmjs.org/mime-db/-/mime-db-1.18.0.tgz"
                }
              }
            }
          }
        },
        "utils-merge": {
          "version": "1.0.0",
          "from": "utils-merge@1.0.0",
          "resolved": "https://registry.npmjs.org/utils-merge/-/utils-merge-1.0.0.tgz"
        },
        "vary": {
          "version": "1.0.1",
          "from": "vary@>=1.0.1 <1.1.0",
          "resolved": "https://registry.npmjs.org/vary/-/vary-1.0.1.tgz"
        }
      }
    },
    "merge": {
      "version": "1.2.0",
      "from": "merge@>=1.2.0 <2.0.0",
      "resolved": "https://registry.npmjs.org/merge/-/merge-1.2.0.tgz"
    },
    "morgan": {
      "version": "1.6.1",
      "from": "morgan@>=1.6.1 <2.0.0",
      "resolved": "https://registry.npmjs.org/morgan/-/morgan-1.6.1.tgz",
      "dependencies": {
        "debug": {
          "version": "2.2.0",
          "from": "debug@>=2.2.0 <2.3.0",
          "resolved": "https://registry.npmjs.org/debug/-/debug-2.2.0.tgz",
          "dependencies": {
            "ms": {
              "version": "0.7.1",
              "from": "ms@0.7.1",
              "resolved": "https://registry.npmjs.org/ms/-/ms-0.7.1.tgz"
            }
          }
        },
        "depd": {
          "version": "1.0.1",
          "from": "depd@>=1.0.1 <1.1.0",
          "resolved": "https://registry.npmjs.org/depd/-/depd-1.0.1.tgz"
        },
        "on-finished": {
          "version": "2.3.0",
          "from": "on-finished@>=2.3.0 <2.4.0",
          "resolved": "https://registry.npmjs.org/on-finished/-/on-finished-2.3.0.tgz",
          "dependencies": {
            "ee-first": {
              "version": "1.1.1",
              "from": "ee-first@1.1.1",
              "resolved": "https://registry.npmjs.org/ee-first/-/ee-first-1.1.1.tgz"
            }
          }
        },
        "on-headers": {
          "version": "1.0.0",
          "from": "on-headers@>=1.0.0 <1.1.0",
          "resolved": "https://registry.npmjs.org/on-headers/-/on-headers-1.0.0.tgz"
        }
      }
    },
    "node-watch": {
      "version": "0.3.4",
      "from": "node-watch@>=0.3.4 <0.4.0",
      "resolved": "https://registry.npmjs.org/node-watch/-/node-watch-0.3.4.tgz"
    },
    "string.prototype.endswith": {
      "version": "0.2.0",
      "from": "string.prototype.endswith@>=0.2.0 <0.3.0",
      "resolved": "https://registry.npmjs.org/string.prototype.endswith/-/string.prototype.endswith-0.2.0.tgz"
    },
    "tiny-lr": {
      "version": "0.1.6",
      "from": "git+https://gitlab.com/conradoqg/tiny-lr.git",
      "resolved": "git+https://gitlab.com/conradoqg/tiny-lr.git#1798f285c391ee73058f4d4d18ba5e3f6548362f",
      "dependencies": {
        "body-parser": {
          "version": "1.8.4",
          "from": "body-parser@>=1.8.0 <1.9.0",
          "resolved": "https://registry.npmjs.org/body-parser/-/body-parser-1.8.4.tgz",
          "dependencies": {
            "bytes": {
              "version": "1.0.0",
              "from": "bytes@1.0.0",
              "resolved": "https://registry.npmjs.org/bytes/-/bytes-1.0.0.tgz"
            },
            "depd": {
              "version": "0.4.5",
              "from": "depd@0.4.5",
              "resolved": "https://registry.npmjs.org/depd/-/depd-0.4.5.tgz"
            },
            "iconv-lite": {
              "version": "0.4.4",
              "from": "iconv-lite@0.4.4",
              "resolved": "https://registry.npmjs.org/iconv-lite/-/iconv-lite-0.4.4.tgz"
            },
            "media-typer": {
              "version": "0.3.0",
              "from": "media-typer@0.3.0",
              "resolved": "https://registry.npmjs.org/media-typer/-/media-typer-0.3.0.tgz"
            },
            "on-finished": {
              "version": "2.1.0",
              "from": "on-finished@2.1.0",
              "resolved": "https://registry.npmjs.org/on-finished/-/on-finished-2.1.0.tgz",
              "dependencies": {
                "ee-first": {
                  "version": "1.0.5",
                  "from": "ee-first@1.0.5",
                  "resolved": "https://registry.npmjs.org/ee-first/-/ee-first-1.0.5.tgz"
                }
              }
            },
            "qs": {
              "version": "2.2.4",
              "from": "qs@2.2.4",
              "resolved": "https://registry.npmjs.org/qs/-/qs-2.2.4.tgz"
            },
            "raw-body": {
              "version": "1.3.0",
              "from": "raw-body@1.3.0",
              "resolved": "https://registry.npmjs.org/raw-body/-/raw-body-1.3.0.tgz"
            },
            "type-is": {
              "version": "1.5.7",
              "from": "type-is@>=1.5.1 <1.6.0",
              "resolved": "https://registry.npmjs.org/type-is/-/type-is-1.5.7.tgz",
              "dependencies": {
                "mime-types": {
                  "version": "2.0.14",
                  "from": "mime-types@>=2.0.9 <2.1.0",
                  "resolved": "https://registry.npmjs.org/mime-types/-/mime-types-2.0.14.tgz",
                  "dependencies": {
                    "mime-db": {
                      "version": "1.12.0",
                      "from": "mime-db@>=1.12.0 <1.13.0",
                      "resolved": "https://registry.npmjs.org/mime-db/-/mime-db-1.12.0.tgz"
                    }
                  }
                }
              }
            }
          }
        },
        "debug": {
          "version": "2.0.0",
          "from": "debug@>=2.0.0 <2.1.0",
          "resolved": "https://registry.npmjs.org/debug/-/debug-2.0.0.tgz",
          "dependencies": {
            "ms": {
              "version": "0.6.2",
              "from": "ms@0.6.2",
              "resolved": "https://registry.npmjs.org/ms/-/ms-0.6.2.tgz"
            }
          }
        },
        "faye-websocket": {
          "version": "0.7.3",
          "from": "faye-websocket@>=0.7.2 <0.8.0",
          "resolved": "https://registry.npmjs.org/faye-websocket/-/faye-websocket-0.7.3.tgz",
          "dependencies": {
            "websocket-driver": {
              "version": "0.6.2",
              "from": "websocket-driver@>=0.3.6",
              "resolved": "https://registry.npmjs.org/websocket-driver/-/websocket-driver-0.6.2.tgz",
              "dependencies": {
                "websocket-extensions": {
                  "version": "0.1.1",
                  "from": "websocket-extensions@>=0.1.1",
                  "resolved": "https://registry.npmjs.org/websocket-extensions/-/websocket-extensions-0.1.1.tgz"
                }
              }
            }
          }
        },
        "livereload-js": {
          "version": "2.2.2",
          "from": "livereload-js@>=2.2.0 <3.0.0",
          "resolved": "https://registry.npmjs.org/livereload-js/-/livereload-js-2.2.2.tgz"
        },
        "parseurl": {
          "version": "1.3.0",
          "from": "parseurl@>=1.3.0 <1.4.0",
          "resolved": "https://registry.npmjs.org/parseurl/-/parseurl-1.3.0.tgz"
        },
        "qs": {
          "version": "2.2.5",
          "from": "qs@>=2.2.3 <2.3.0",
          "resolved": "https://registry.npmjs.org/qs/-/qs-2.2.5.tgz"
        }
      }
    }
  }
}
